Assignment
…
Calculate the mean and median

mm <- data %>% mutate(date_col = date(fechas)) %>%
  group_by(date_col) %>%
  summarize(median_steps = median(steps, na.rm = TRUE),
            mean_steps =  mean(steps, na.rm = TRUE)) 

## `summarise()` ungrouping output (override with `.groups` argument)

mm

## # A tibble: 61 x 3
##    date_col   median_steps mean_steps
##    <date>            <dbl>      <dbl>
##  1 2012-10-01           NA    NaN    
##  2 2012-10-02            0      0.438
##  3 2012-10-03            0     39.4  
##  4 2012-10-04            0     42.1  
##  5 2012-10-05            0     46.2  
##  6 2012-10-06            0     53.5  
##  7 2012-10-07            0     38.2  
##  8 2012-10-08           NA    NaN    
##  9 2012-10-09            0     44.5  
## 10 2012-10-10            0     34.4  
## # ... with 51 more rows
…
And obtain mean and median again.

mmnona <- nona %>% mutate(date_col = date(fechas)) %>%
  group_by(date_col) %>%
  summarize(median_steps = median(steps, na.rm = TRUE),
            mean_steps =  mean(steps, na.rm = TRUE)) 

## `summarise()` ungrouping output (override with `.groups` argument)

mmnona

## # A tibble: 61 x 3
##    date_col   median_steps mean_steps
##    <date>            <dbl>      <dbl>
##  1 2012-10-01         34.1     37.4  
##  2 2012-10-02          0        0.438
##  3 2012-10-03          0       39.4  
##  4 2012-10-04          0       42.1  
##  5 2012-10-05          0       46.2  
##  6 2012-10-06          0       53.5  
##  7 2012-10-07          0       38.2  
##  8 2012-10-08         34.1     37.4  
##  9 2012-10-09          0       44.5  
## 10 2012-10-10          0       34.4  
## # ... with 51 more rows
…
